<?xml version="1.0" encoding="UTF-8"?>
<svg width="64px" height="64px" viewBox="0 0 64 64" version="1.1" xmlns="http://www.w3.org/2000/svg" xmlns:xlink="http://www.w3.org/1999/xlink">
    <!-- Generator: Sketch 61.2 (89653) - https://sketch.com -->
    <title>19_EPPS_avatars_set_v01-10</title>
    <desc>Created with Sketch.</desc>
    <defs>
        <polygon id="path-1" points="0.06 0.04 64 0.04 64 64 0.06 64"></polygon>
    </defs>
    <g id="Page-1" stroke="none" stroke-width="1" fill="none" fill-rule="evenodd">
        <g id="Artboard" transform="translate(-41.000000, -1415.000000)">
            <g id="Testimonials" transform="translate(-83.000000, 1412.000000)">
                <g id="1">
                    <g id="19_EPPS_avatars_set_v01-10" transform="translate(124.000000, 3.000000)">
                        <g id="Group-3">
                            <mask id="mask-2" fill="white">
                                <use xlink:href="#path-1"></use>
                            </mask>
                            <g id="Clip-2"></g>
                            <path d="M64,32.001 C64,49.673 49.673,64 32,64 C14.327,64 0,49.673 0,32.001 C0,14.327 14.327,0 32,0 C49.673,0 64,14.327 64,32.001" id="Fill-1" fill-opacity="0.1" fill="#141466" mask="url(#mask-2)"></path>
                        </g>
                        <path d="M31.296,11.998 C29.791,8.207 20.362,10.119 19.713,14.872 C13.198,15.991 12.457,22.821 14.099,27.009 C12.213,26.896 11.005,30.542 12.711,32.031 C8.85058869,32.603 8.85058869,37.027 10.855,38.607 C7.656,40.417 8.643,45.278 11.316,45.607 C7.883,47.333 9.783,52.308 12.407,52.328 C11.074,56.947 15.404,59.067 17.429,57.421 C17.489,58.941 19.482,59.935 20.784,59.886 C22.371,59.825 23.946,59.462 25.576,59.462 C27.551,59.461 29.677,59.822 31.629,59.689 C34.13,59.521 36.512,59.417 38.924,58.783 C39.615,58.601 40.615,58.271 41.377,58.479 C42.315,58.738 43.059,59.233 44.082,59.681 C45.714,60.394 48.598,59.067 48.491,55.873 C50.727,57.283 53.233,54.85 51.58,51.586 C54.069,51.881 56.0628223,49.29 54.074,46.15 C56.803,44.746 56.0628223,41.016 54.405,40.561 C56.728,39.768 56.575,36.691 54.164,35.425 C55.419,34.462 54.649,31.999 52.66,31.774 C53.385,29.099 51.304,27.668 49.496,27.878 C51.304,27.351 51.507,23.78 48.733,23.509 C51.304,20.817 47.897,16.544 45.486,16.488 C46.464,7.857 33.255,9.499 31.296,11.998" id="Fill-4" fill="#D86D25"></path>
                        <path d="M21.018,34.627 C21.288,36.803 20.033,38.748 18.217,38.974 C16.4,39.198 14.708,37.616 14.44,35.44 C14.17,33.265 15.424,31.318 17.242,31.094 C19.058,30.868 20.749,32.45 21.018,34.627" id="Fill-5" fill="#FFD8BB"></path>
                        <path d="M42.697,34.627 C42.427,36.803 43.681,38.748 45.498,38.974 C47.314,39.198 49.006,37.616 49.275,35.44 C49.544,33.265 48.29,31.318 46.474,31.094 C44.656,30.868 42.966,32.45 42.697,34.627" id="Fill-6" fill="#FFD8BB"></path>
                        <path d="M43.053,21.122 C40.383,17.336 37.674,16.975 33.254,16.792 L29.333,17.399 C24.913,17.583 23.236,16.956 20.568,20.742 C17.896,24.531 18.015,21.857 18.226,26.429 C18.385,29.882 16.322,27.459 17.75,37.063 C19.178,46.666 27.518,49.746 31.906,49.746 C36.295,49.746 44.01,47.171 46.065,37.063 C48.119,26.954 45.428,29.882 45.587,26.429 C45.798,21.857 45.724,24.911 43.053,21.122" id="Fill-7" fill="#FFD8BB"></path>
                        <path d="M25.078,62.44 C25.223,61.839 25.37,61.248 25.521,60.673 C25.521,60.673 24.953,61.354 25.078,62.44" id="Fill-8" fill="#FFC28A"></path>
                        <path d="M38.293,60.673 C38.443,61.248 38.59,61.839 38.735,62.44 C38.86,61.354 38.293,60.673 38.293,60.673" id="Fill-9" fill="#FFC28A"></path>
                        <polygon id="Fill-10" fill="#FFD8BB" points="29.215 59.232 34.597 59.232 34.597 48.172 29.215 48.172"></polygon>
                        <path d="M25.078,62.44 C25.223,61.839 25.37,61.248 25.521,60.673 C25.521,60.673 24.953,61.354 25.078,62.44" id="Fill-11" fill="#FFC28A"></path>
                        <path d="M38.293,60.673 C38.443,61.248 38.59,61.839 38.735,62.44 C38.86,61.354 38.293,60.673 38.293,60.673" id="Fill-12" fill="#FFC28A"></path>
                        <path d="M18.523,28.068 C21.203,29.109 25.411,24.259 24.262,20.602 C24.148,22.063 31.146,24.766 33.325,21.4 C33.862,25.603 39.036,26.485 40.774,24.836 C40.699,27.957 44.12,30.457 45.332,29.172 C44.604,29.944 45.633,32.818 47.458,32.818 C50.193,32.818 47.868,27.785 47.711,26.485 C47.218,22.41 45.178,17.985 41.707,15.619 C41.485,15.469 41.257,15.326 41.023,15.195 C35.476,12.094 31.279,15.322 24.897,16.03 C19.581,16.621 16.45,20.133 15.533,25.106 C15.244,26.679 15.17,28.381 15.463,29.956 C15.614,30.77 16.265,32.352 16.965,32.827 C18.973,34.186 19.027,29.159 18.523,28.068" id="Fill-13" fill="#D86D25"></path>
                        <path d="M42.203,59.485 C40.97,55.849 40.399,55.274 36.09,53.346 C36.033,53.32 34.561,52.467 34.561,52.467 L31.886,57.846 L30.576,55.46 L29.179,52.467 C29.179,52.467 27.922,53.225 27.88,53.243 C23.366,55.253 22.773,55.835 21.537,59.485 C21.388,59.927 21.159,60.84 20.887,62.025 C24.22,63.256 27.815,63.942 31.564,63.99 C31.701,63.991 31.836,64 31.974,64 C32.03,64 32.085,63.996 32.142,63.996 C35.907,63.977 39.518,63.308 42.868,62.096 C42.59,60.875 42.354,59.936 42.203,59.485" id="Fill-14" fill="#FFB83F"></path>
                    </g>
                </g>
            </g>
        </g>
    </g>
</svg>