<?xml version="1.0" encoding="utf-8"?>
<svg version="1.1" id="Layer_1" x="0px" y="0px" width="64px" height="64px" viewBox="0 0 64 64" enable-background="new 0 0 64 64" xmlns="http://www.w3.org/2000/svg">
  <g>
    <defs>
      <rect id="SVGID_1_" width="64" height="64"/>
    </defs>
    <clipPath id="SVGID_2_">
      <rect width="64" height="64" overflow="visible"/>
    </clipPath>
    <path clip-path="url(#SVGID_2_)" d="M64,32.001c0,17.672-14.326,32-32,32c-17.673,0-32-14.328-32-32 C0,14.328,14.327,0,32,0C49.674,0,64,14.328,64,32.001" style="fill: rgb(20, 20, 102); fill-opacity: 0.1;"/>
    <path clip-path="url(#SVGID_2_)" fill="#E0AA79" d="M21.135,33.61c0.271,2.182-0.986,4.133-2.808,4.358 c-1.821,0.226-3.516-1.36-3.786-3.542c-0.269-2.181,0.988-4.13,2.809-4.356C19.171,29.844,20.865,31.43,21.135,33.61"/>
    <path clip-path="url(#SVGID_2_)" fill="#E0AA79" d="M42.865,33.61c-0.271,2.182,0.985,4.133,2.807,4.358s3.517-1.36,3.787-3.542 c0.271-2.181-0.987-4.13-2.809-4.356S43.135,31.43,42.865,33.61"/>
    <path clip-path="url(#SVGID_2_)" fill="#E0AA79" d="M43.505,57.847c-1.219-3.051-2.503-3.717-8.274-6.307 c-1.016-0.367-2.544,0.025-3.23,0.24c-0.687-0.215-2.215-0.607-3.231-0.24c-4.29,1.926-6.1,2.788-7.247,4.356 C28.273,58.71,36.306,59.417,43.505,57.847"/>
    <path clip-path="url(#SVGID_2_)" fill="#E0AA79" d="M44.262,16.031c-2.676-3.795-5.424-3.912-9.854-4.096h-4.814 c-4.432,0.184-7.179,0.301-9.853,4.096c-2.678,3.797-1.664,4.782-1.453,9.363c0.161,3.461-1.909,1.033-0.478,10.658 C19.241,45.68,27.601,48.767,32,48.767s12.131-2.581,14.192-12.715c2.06-10.13-0.639-7.197-0.479-10.658 C45.924,20.813,46.938,19.828,44.262,16.031"/>
    <rect x="28.769" y="46.804" clip-path="url(#SVGID_2_)" fill="#E0AA79" width="6.459" height="9.975"/>
    <path clip-path="url(#SVGID_2_)" fill="#4F2F19" d="M41.469,12.453c-4.372-2.9-10.671-3.188-15.702-1.546 c-2.748,0.897-9.402,3.272-10.126,12.21c-0.957,6.493,1.33,10.543,1.33,10.543s0.331-5.829,11.799-9.026 c7.514-2.097,10.039-4.466,10.039-4.466s0.813,3.232,4.02,6.563c4.271,4.438,3.884,7.773,3.884,7.773s1.498-2.271,1.718-6.092 c0.001-0.001,0.001-0.003,0.001-0.005C49.269,24.143,48.579,17.168,41.469,12.453"/>
    <path clip-path="url(#SVGID_2_)" fill="#4F2F19" d="M41.61,8.992c0,5.228-3.91,6.093-8.732,6.093c-4.825,0-8.733-1.298-8.733-6.093 c0-3.365,3.909-6.092,8.733-6.092C37.7,2.9,41.61,5.626,41.61,8.992"/>
    <path clip-path="url(#SVGID_2_)" fill="#048940" d="M44.403,59.654c-1.478-4.47-2.164-5.176-7.335-7.547 c-0.07-0.031-0.149-0.029-0.217,0.009c-0.066,0.036-0.097,0.105-0.122,0.178c-1.181,3.333-7.957,3.485-9.176-0.085l-0.009-0.052 c-0.013-0.072-0.06-0.136-0.125-0.17c-0.066-0.035-0.144-0.037-0.211-0.006c-5.417,2.47-6.128,3.187-7.612,7.673 c-0.113,0.341-0.263,0.917-0.441,1.655C23.088,63.035,27.43,64,32,64c4.57,0,8.912-0.965,12.845-2.69 C44.667,60.571,44.516,59.995,44.403,59.654"/>
  </g>
</svg>