<?xml version="1.0" encoding="UTF-8"?>
<svg width="24px" height="24px" viewBox="0 0 24 24" version="1.1" xmlns="http://www.w3.org/2000/svg" xmlns:xlink="http://www.w3.org/1999/xlink">
    <!-- Generator: Sketch 61.1 (89650) - https://sketch.com -->
    <title>IG</title>
    <desc>Created with Sketch.</desc>
    <defs>
        <polygon id="path-1" points="0 0 11.9999077 0 11.9999077 12 0 12"></polygon>
    </defs>
    <g id="Page-1" stroke="none" stroke-width="1" fill="none" fill-rule="evenodd">
        <g id="Artboard" transform="translate(-1453.000000, -60.000000)">
            <g id="Menu" transform="translate(397.000000, 0.000000)">
                <g id="IG" transform="translate(1056.000000, 60.000000)">
                    <circle id="Oval" fill="#E23841" cx="12" cy="12" r="12"></circle>
                    <g id="Group-3" transform="translate(6.000000, 6.000000)">
                        <mask id="mask-2" fill="white">
                            <use xlink:href="#path-1"></use>
                        </mask>
                        <g id="Clip-2"></g>
                        <path d="M9.68021538,0 L2.31775385,0 C1.03929231,0 -9.23076923e-05,1.03938462 -9.23076923e-05,2.31969231 L-9.23076923e-05,9.68215385 C-9.23076923e-05,10.9606154 1.03929231,12 2.31775385,12 L9.68021538,12 C10.9605231,12 11.9999077,10.9606154 11.9999077,9.68215385 L11.9999077,4.76769231 L11.9999077,2.31969231 C11.9999077,1.03938462 10.9605231,0 9.68021538,0 L9.68021538,0 Z M10.3466769,1.38184615 L10.6116,1.38184615 L10.6116,3.41538462 L8.58452308,3.42184615 L8.57621538,1.38830769 L10.3466769,1.38184615 Z M4.2876,4.76769231 C4.67067692,4.23507692 5.2956,3.888 5.99898462,3.888 C6.70513846,3.888 7.32913846,4.23692308 7.71313846,4.76769231 C7.96236923,5.11476923 8.11190769,5.54030769 8.11190769,5.99907692 C8.11190769,7.16492308 7.16298462,8.11107692 5.99898462,8.11107692 C4.83498462,8.11107692 3.88698462,7.16492308 3.88698462,5.99907692 C3.88883077,5.54030769 4.03652308,5.11476923 4.2876,4.76769231 L4.2876,4.76769231 Z M10.8294462,9.68215385 C10.8294462,10.3172308 10.3152923,10.8295385 9.68021538,10.8295385 L2.31775385,10.8295385 C1.68267692,10.8295385 1.16852308,10.3172308 1.16852308,9.68215385 L1.16852308,4.76769231 L2.95929231,4.76769231 C2.80606154,5.148 2.71836923,5.56523077 2.71836923,5.99907692 C2.71836923,7.80830769 4.18975385,9.28153846 5.99898462,9.28153846 C7.81098462,9.28153846 9.28144615,7.80830769 9.28144615,5.99907692 C9.28144615,5.56523077 9.19283077,5.148 9.03867692,4.76769231 L10.8294462,4.76769231 L10.8294462,9.68215385 Z" id="Fill-1" fill="#FFFAEB" mask="url(#mask-2)"></path>
                    </g>
                </g>
            </g>
        </g>
    </g>
</svg>